…
``` r
month_df = 
  tibble(
    month = 1:12,
    month_name = month.name
  )

precip_df =
  bind_rows(precip_2018,precip_2017)

left_join(precip_df, month_df, by = "month")
```

    ## # A tibble: 24 x 4
    ##     year month total month_name
    ##    <dbl> <dbl> <dbl> <chr>     
    ##  1  2018     1  0.94 January   
    ##  2  2018     2  4.8  February  
    ##  3  2018     3  2.69 March     
    ##  4  2018     4  4.69 April     
    ##  5  2018     5  9.27 May       
    ##  6  2018     6  4.77 June      
    ##  7  2018     7 10.2  July      
    ##  8  2018     8  6.45 August    
    ##  9  2018     9 10.5  September 
    ## 10  2018    10  2.12 October   
    ## # … with 14 more rows
…
transit_tidy_df
```

    ## # A tibble: 4,270 x 9
    ##    route_line line  station_name station_latitude station_longitu… entry vending
    ##    <chr>      <chr> <chr>                   <dbl>            <dbl> <lgl> <chr>  
    ##  1 R          4 Av… 25th St                  40.7            -74.0 TRUE  YES    
    ##  2 R          4 Av… 25th St                  40.7            -74.0 TRUE  YES    
    ##  3 N          4 Av… 36th St                  40.7            -74.0 TRUE  YES    
    ##  4 R          4 Av… 36th St                  40.7            -74.0 TRUE  YES    
    ##  5 N          4 Av… 36th St                  40.7            -74.0 TRUE  YES    
    ##  6 R          4 Av… 36th St                  40.7            -74.0 TRUE  YES    
    ##  7 N          4 Av… 36th St                  40.7            -74.0 TRUE  YES    
    ##  8 R          4 Av… 36th St                  40.7            -74.0 TRUE  YES    
    ##  9 R          4 Av… 45th St                  40.6            -74.0 TRUE  YES    
    ## 10 R          4 Av… 45th St                  40.6            -74.0 TRUE  YES    
    ## # … with 4,260 more rows, and 2 more variables: entrance_type <chr>, ada <lgl>
…
